{
  "content": [
    {
      "id": 41,
      "imgFiles": [
        "http://15.164.50.51:8080/images/products/A01W/후드 티셔츠4.jpg - 복사본 (34).jpg651A/view/8d8cad0d-bf1e-4050-9203-5c246831cec2.jpeg"
      ],
      "name": "후드 티셔츠4.jpg - 복사본 (34).jpg651A",
      "price": 40000,
      "code": "A01W",
      "size": "s,m,l,xl,xxl",
      "detailInfo": "http://15.164.50.51:8080/images/products/A01W/후드 티셔츠4.jpg - 복사본 (34).jpg651A/8d3ab32a-d2e2-424f-9ab2-8b2630ccb4fc.jpeg"
    },
    {
      "id": 40,
      "imgFiles": [
        "http://15.164.50.51:8080/images/products/A01M/후드 티셔츠4.jpg - 복사본 (33).jpg164A/view/19c04212-500f-4e72-b9ba-8c8f09d850cf.jpeg"
      ],
      "name": "후드 티셔츠4.jpg - 복사본 (33).jpg164A",
      "price": 60000,
      "code": "A01M",
      "size": "s,m,l,xl,xxl",
      "detailInfo": "http://15.164.50.51:8080/images/products/A01M/후드 티셔츠4.jpg - 복사본 (33).jpg164A/597ed562-df3c-4109-aa6f-88f7897e8003.jpeg"
    },
    {
      "id": 39,
      "imgFiles": [
        "http://15.164.50.51:8080/images/products/A01W/후드 티셔츠4.jpg - 복사본 (32).jpg765A/view/ac12c3bb-13fb-49d0-9498-65ead9225e8d.jpeg"
      ],
      "name": "후드 티셔츠4.jpg - 복사본 (32).jpg765A",
      "price": 50000,
      "code": "A01W",
      "size": "s,m,l,xl,xxl",
      "detailInfo": "http://15.164.50.51:8080/images/products/A01W/후드 티셔츠4.jpg - 복사본 (32).jpg765A/c8ef01cd-5631-4774-b9de-b642c0ae3037.jpeg"
    },
    {
      "id": 38,
      "imgFiles": [
        "http://15.164.50.51:8080/images/products/A01M/후드 티셔츠4.jpg - 복사본 (31).jpg453A/view/20f4e168-aa62-4f03-82d8-70ab3cc8008c.jpeg"
      ],
      "name": "후드 티셔츠4.jpg - 복사본 (31).jpg453A",
      "price": 90000,
      "code": "A01M",
      "size": "s,m,l,xl,xxl",
      "detailInfo": "http://15.164.50.51:8080/images/products/A01M/후드 티셔츠4.jpg - 복사본 (31).jpg453A/cf1ad068-d787-4f77-8c02-00c08dcadbac.jpeg"
    },
    {
      "id": 37,
      "imgFiles": [
        "http://15.164.50.51:8080/images/products/A01W/후드 티셔츠4.jpg - 복사본 (30).jpg340A/view/9185a0c1-a4ba-475c-aa2d-394150b96cfe.jpeg"
      ],
      "name": "후드 티셔츠4.jpg - 복사본 (30).jpg340A",
      "price": 20000,
      "code": "A01W",
      "size": "s,m,l,xl,xxl",
      "detailInfo": "http://15.164.50.51:8080/images/products/A01W/후드 티셔츠4.jpg - 복사본 (30).jpg340A/800f98ec-45ba-4690-afa5-c70c781c71df.jpeg"
    },
    {
      "id": 36,
      "imgFiles": [
        "http://15.164.50.51:8080/images/products/A01M/후드 티셔츠4.jpg - 복사본 (29).jpg549A/view/260f3b63-34de-4b0c-8291-f068f8ffa76d.jpeg"
      ],
      "name": "후드 티셔츠4.jpg - 복사본 (29).jpg549A",
      "price": 80000,
      "code": "A01M",
      "size": "s,m,l,xl,xxl",
      "detailInfo": "http://15.164.50.51:8080/images/products/A01M/후드 티셔츠4.jpg - 복사본 (29).jpg549A/f5255e3b-f311-47eb-865f-7ebaf97fbd85.jpeg"
    },
    {
      "id": 35,
      "imgFiles": [
        "http://15.164.50.51:8080/images/products/A01W/후드 티셔츠4.jpg - 복사본 (28).jpg599A/view/16f90c44-2b32-4027-8761-02ab12fe1d62.jpeg"
      ],
      "name": "후드 티셔츠4.jpg - 복사본 (28).jpg599A",
      "price": 70000,
      "code": "A01W",
      "size": "s,m,l,xl,xxl",
      "detailInfo": "http://15.164.50.51:8080/images/products/A01W/후드 티셔츠4.jpg - 복사본 (28).jpg599A/c5bdcff6-6d5b-4616-b4d1-66c2af1ccce2.jpeg"
    },
    {
      "id": 34,
      "imgFiles": [
        "http://15.164.50.51:8080/images/products/A01M/후드 티셔츠4.jpg - 복사본 (27).jpg26A/view/fa123c3b-cc0f-421b-91a2-5607501936c9.jpeg"
      ],
      "name": "후드 티셔츠4.jpg - 복사본 (27).jpg26A",
      "price": 10000,
      "code": "A01M",
      "size": "s,m,l,xl,xxl",
      "detailInfo": "http://15.164.50.51:8080/images/products/A01M/후드 티셔츠4.jpg - 복사본 (27).jpg26A/7448c6d3-d621-41d8-a143-b522854bc271.jpeg"
    },
    {
      "id": 33,
      "imgFiles": [
        "http://15.164.50.51:8080/images/products/A01W/후드 티셔츠4.jpg - 복사본 (26).jpg914A/view/81d115e3-7439-4a7c-b3e9-282ce8761573.jpeg"
      ],
      "name": "후드 티셔츠4.jpg - 복사본 (26).jpg914A",
      "price": 70000,
      "code": "A01W",
      "size": "s,m,l,xl,xxl",
      "detailInfo": "http://15.164.50.51:8080/images/products/A01W/후드 티셔츠4.jpg - 복사본 (26).jpg914A/b79281fb-7242-4dea-b8f8-e2851147f2c5.jpeg"
    },
    {
      "id": 32,
      "imgFiles": [
        "http://15.164.50.51:8080/images/products/A01M/후드 티셔츠4.jpg - 복사본 (25).jpg833A/view/fee1a7ae-f3bb-47c8-8006-da4ff98b6068.jpeg"
      ],
      "name": "후드 티셔츠4.jpg - 복사본 (25).jpg833A",
      "price": 100000,
      "code": "A01M",
      "size": "s,m,l,xl,xxl",
      "detailInfo": "http://15.164.50.51:8080/images/products/A01M/후드 티셔츠4.jpg - 복사본 (25).jpg833A/e3bc3db0-8ad9-403a-9377-9fa202cc8d4c.jpeg"
    },
    {
      "id": 31,
      "imgFiles": [
        "http://15.164.50.51:8080/images/products/A01W/후드 티셔츠4.jpg - 복사본 (24).jpg385A/view/3cf457c3-06ff-45ec-bbad-a4d6a1613c7b.jpeg"
      ],
      "name": "후드 티셔츠4.jpg - 복사본 (24).jpg385A",
      "price": 100000,
      "code": "A01W",
      "size": "s,m,l,xl,xxl",
      "detailInfo": "http://15.164.50.51:8080/images/products/A01W/후드 티셔츠4.jpg - 복사본 (24).jpg385A/f5d590a5-361d-42ef-a833-b19e59131f58.jpeg"
    },
    {
      "id": 30,
      "imgFiles": [
        "http://15.164.50.51:8080/images/products/A01M/후드 티셔츠4.jpg - 복사본 (23).jpg104A/view/660b6c81-d835-4a1e-9605-177445398a57.jpeg"
      ],
      "name": "후드 티셔츠4.jpg - 복사본 (23).jpg104A",
      "price": 90000,
      "code": "A01M",
      "size": "s,m,l,xl,xxl",
      "detailInfo": "http://15.164.50.51:8080/images/products/A01M/후드 티셔츠4.jpg - 복사본 (23).jpg104A/23e6e3ac-c41f-43f4-b5e9-49fa540a01f0.jpeg"
    },
    {
      "id": 29,
      "imgFiles": [
        "http://15.164.50.51:8080/images/products/A01W/후드 티셔츠4.jpg - 복사본 (22).jpg232A/view/f1fa4c28-cbc5-43bc-84db-bbe79ade3524.jpeg"
      ],
      "name": "후드 티셔츠4.jpg - 복사본 (22).jpg232A",
      "price": 90000,
      "code": "A01W",
      "size": "s,m,l,xl,xxl",
      "detailInfo": "http://15.164.50.51:8080/images/products/A01W/후드 티셔츠4.jpg - 복사본 (22).jpg232A/2d06f10b-f133-49e3-a6c8-8a38efba2377.jpeg"
    },
    {
      "id": 28,
      "imgFiles": [
        "http://15.164.50.51:8080/images/products/A01M/후드 티셔츠4.jpg - 복사본 (21).jpg668A/view/36b6001e-c0b7-4acf-8759-d5c48797a270.jpeg"
      ],
      "name": "후드 티셔츠4.jpg - 복사본 (21).jpg668A",
      "price": 70000,
      "code": "A01M",
      "size": "s,m,l,xl,xxl",
      "detailInfo": "http://15.164.50.51:8080/images/products/A01M/후드 티셔츠4.jpg - 복사본 (21).jpg668A/6e0d850c-d37d-4113-b6dd-d203950b9635.jpeg"
    },
    {
      "id": 27,
      "imgFiles": [
        "http://15.164.50.51:8080/images/products/A01W/후드 티셔츠4.jpg - 복사본 (20).jpg909A/view/0d0f65cf-0918-4560-a3f2-f5343ff20027.jpeg"
      ],
      "name": "후드 티셔츠4.jpg - 복사본 (20).jpg909A",
      "price": 50000,
      "code": "A01W",
      "size": "s,m,l,xl,xxl",
      "detailInfo": "http://15.164.50.51:8080/images/products/A01W/후드 티셔츠4.jpg - 복사본 (20).jpg909A/c681d363-2b62-467f-a857-bc28ae9c994a.jpeg"
    },
    {
      "id": 26,
      "imgFiles": [
        "http://15.164.50.51:8080/images/products/A01M/후드 티셔츠4.jpg - 복사본 (19).jpg657A/view/9ac2d74c-da32-49b8-b93e-4222f53da718.jpeg"
      ],
      "name": "후드 티셔츠4.jpg - 복사본 (19).jpg657A",
      "price": 10000,
      "code": "A01M",
      "size": "s,m,l,xl,xxl",
      "detailInfo": "http://15.164.50.51:8080/images/products/A01M/후드 티셔츠4.jpg - 복사본 (19).jpg657A/c346ffc6-f9b4-429b-8f34-7a871abc50cd.jpeg"
    },
    {
      "id": 25,
      "imgFiles": [
        "http://15.164.50.51:8080/images/products/A01W/후드 티셔츠4.jpg - 복사본 (18).jpg76A/view/5911aab3-a798-4992-84d3-d7a074b1188d.jpeg"
      ],
      "name": "후드 티셔츠4.jpg - 복사본 (18).jpg76A",
      "price": 10000,
      "code": "A01W",
      "size": "s,m,l,xl,xxl",
      "detailInfo": "http://15.164.50.51:8080/images/products/A01W/후드 티셔츠4.jpg - 복사본 (18).jpg76A/35c1c250-87a5-4c7f-b562-aea9aee3747f.jpeg"
    },
    {
      "id": 24,
      "imgFiles": [
        "http://15.164.50.51:8080/images/products/A01M/후드 티셔츠4.jpg - 복사본 (17).jpg902A/view/9edcfac6-aeab-4bee-abf9-66f311717e4d.jpeg"
      ],
      "name": "후드 티셔츠4.jpg - 복사본 (17).jpg902A",
      "price": 50000,
      "code": "A01M",
      "size": "s,m,l,xl,xxl",
      "detailInfo": "http://15.164.50.51:8080/images/products/A01M/후드 티셔츠4.jpg - 복사본 (17).jpg902A/4ff6e690-82e9-4772-9a70-670ffb897725.jpeg"
    },
    {
      "id": 23,
      "imgFiles": [
        "http://15.164.50.51:8080/images/products/A01W/후드 티셔츠4.jpg - 복사본 (16).jpg95A/view/5087f75b-ee8d-4869-a448-aaf9a852c66c.jpeg"
      ],
      "name": "후드 티셔츠4.jpg - 복사본 (16).jpg95A",
      "price": 70000,
      "code": "A01W",
      "size": "s,m,l,xl,xxl",
      "detailInfo": "http://15.164.50.51:8080/images/products/A01W/후드 티셔츠4.jpg - 복사본 (16).jpg95A/6ac6ff59-7b37-4117-9a31-db6d12cec851.jpeg"
    },
    {
      "id": 22,
      "imgFiles": [
        "http://15.164.50.51:8080/images/products/A01M/후드 티셔츠4.jpg - 복사본 (15).jpg892A/view/5f4aeebe-7986-4dcd-a2f6-dcb0c5905b9b.jpeg"
      ],
      "name": "후드 티셔츠4.jpg - 복사본 (15).jpg892A",
      "price": 80000,
      "code": "A01M",
      "size": "s,m,l,xl,xxl",
      "detailInfo": "http://15.164.50.51:8080/images/products/A01M/후드 티셔츠4.jpg - 복사본 (15).jpg892A/41916162-aafb-4a91-b649-4bce1e497871.jpeg"
    }
  ],
  "pageable": {
    "sort": { "empty": false, "sorted": true, "unsorted": false },
    "offset": 0,
    "pageNumber": 0,
    "pageSize": 20,
    "paged": true,
    "unpaged": false
  },
  "totalPages": 2,
  "totalElements": 40,
  "last": false,
  "number": 0,
  "sort": { "empty": false, "sorted": true, "unsorted": false },
  "size": 20,
  "numberOfElements": 20,
  "first": true,
  "empty": false
}
