{
  "content": [
    {
      "id": 21,
      "imgFiles": [
        "http://15.164.50.51:8080/images/products/A01W/후드 티셔츠4.jpg - 복사본 (14).jpg660A/view/d959e131-4bd7-4fb5-b053-f4da9f6db2bc.jpeg"
      ],
      "name": "후드 티셔츠4.jpg - 복사본 (14).jpg660A",
      "price": 60000,
      "code": "A01W",
      "size": "s,m,l,xl,xxl",
      "detailInfo": "http://15.164.50.51:8080/images/products/A01W/후드 티셔츠4.jpg - 복사본 (14).jpg660A/e651d8e0-dc1a-4564-a56f-c5e61951ef36.jpeg"
    },
    {
      "id": 20,
      "imgFiles": [
        "http://15.164.50.51:8080/images/products/A01M/후드 티셔츠4.jpg - 복사본 (13).jpg12A/view/96af37d9-82f4-4998-bff8-90ba8c9922e6.jpeg"
      ],
      "name": "후드 티셔츠4.jpg - 복사본 (13).jpg12A",
      "price": 100000,
      "code": "A01M",
      "size": "s,m,l,xl,xxl",
      "detailInfo": "http://15.164.50.51:8080/images/products/A01M/후드 티셔츠4.jpg - 복사본 (13).jpg12A/f83272fc-63dd-4874-a18e-8145133bfd65.jpeg"
    },
    {
      "id": 19,
      "imgFiles": [
        "http://15.164.50.51:8080/images/products/A01W/후드 티셔츠4.jpg - 복사본 (12).jpg376A/view/7ac1c307-f260-4a72-a9c9-7369679313b7.jpeg"
      ],
      "name": "후드 티셔츠4.jpg - 복사본 (12).jpg376A",
      "price": 60000,
      "code": "A01W",
      "size": "s,m,l,xl,xxl",
      "detailInfo": "http://15.164.50.51:8080/images/products/A01W/후드 티셔츠4.jpg - 복사본 (12).jpg376A/34c8aa5f-bde6-4dd1-b2a4-a67f09321f1c.jpeg"
    },
    {
      "id": 18,
      "imgFiles": [
        "http://15.164.50.51:8080/images/products/A01M/후드 티셔츠4.jpg - 복사본 (11).jpg616A/view/fb0aef4e-9140-42a0-b1a4-beb1a7f7600b.jpeg"
      ],
      "name": "후드 티셔츠4.jpg - 복사본 (11).jpg616A",
      "price": 10000,
      "code": "A01M",
      "size": "s,m,l,xl,xxl",
      "detailInfo": "http://15.164.50.51:8080/images/products/A01M/후드 티셔츠4.jpg - 복사본 (11).jpg616A/812954d5-84b0-4649-9584-b7ee869f50f9.jpeg"
    },
    {
      "id": 17,
      "imgFiles": [
        "http://15.164.50.51:8080/images/products/A01W/후드 티셔츠4.jpg - 복사본 (10).jpg722A/view/c28a8628-43a5-4d64-89c6-328a10632f4d.jpeg"
      ],
      "name": "후드 티셔츠4.jpg - 복사본 (10).jpg722A",
      "price": 50000,
      "code": "A01W",
      "size": "s,m,l,xl,xxl",
      "detailInfo": "http://15.164.50.51:8080/images/products/A01W/후드 티셔츠4.jpg - 복사본 (10).jpg722A/a9979e28-d4ca-4e64-8fb3-7a377e74a08c.jpeg"
    },
    {
      "id": 16,
      "imgFiles": [
        "http://15.164.50.51:8080/images/products/A01M/후드 티셔츠4.jpg - 복사본 (9).jpg63A/view/edd47125-a136-4d8c-a791-fbb4c530c58c.jpeg"
      ],
      "name": "후드 티셔츠4.jpg - 복사본 (9).jpg63A",
      "price": 60000,
      "code": "A01M",
      "size": "s,m,l,xl,xxl",
      "detailInfo": "http://15.164.50.51:8080/images/products/A01M/후드 티셔츠4.jpg - 복사본 (9).jpg63A/dc351907-c17a-48a3-bf00-f69403fd061a.jpeg"
    },
    {
      "id": 15,
      "imgFiles": [
        "http://15.164.50.51:8080/images/products/A01W/후드 티셔츠4.jpg - 복사본 (8).jpg761A/view/fe4bb4f4-5853-40b2-a3a5-54c8529e9afc.jpeg"
      ],
      "name": "후드 티셔츠4.jpg - 복사본 (8).jpg761A",
      "price": 90000,
      "code": "A01W",
      "size": "s,m,l,xl,xxl",
      "detailInfo": "http://15.164.50.51:8080/images/products/A01W/후드 티셔츠4.jpg - 복사본 (8).jpg761A/efbd20a7-9a9c-4a7d-8e53-2826f86c0bbb.jpeg"
    },
    {
      "id": 14,
      "imgFiles": [
        "http://15.164.50.51:8080/images/products/A01M/후드 티셔츠4.jpg - 복사본 (7).jpg389A/view/d312c725-1754-467b-a6c9-7ee6107f98f7.jpeg"
      ],
      "name": "후드 티셔츠4.jpg - 복사본 (7).jpg389A",
      "price": 70000,
      "code": "A01M",
      "size": "s,m,l,xl,xxl",
      "detailInfo": "http://15.164.50.51:8080/images/products/A01M/후드 티셔츠4.jpg - 복사본 (7).jpg389A/224cbc71-896f-484f-b639-0eb328012ccb.jpeg"
    },
    {
      "id": 13,
      "imgFiles": [
        "http://15.164.50.51:8080/images/products/A01W/후드 티셔츠4.jpg - 복사본 (6).jpg226A/view/ded3296f-bb47-41e9-b1a5-1b266eac80c5.jpeg"
      ],
      "name": "후드 티셔츠4.jpg - 복사본 (6).jpg226A",
      "price": 30000,
      "code": "A01W",
      "size": "s,m,l,xl,xxl",
      "detailInfo": "http://15.164.50.51:8080/images/products/A01W/후드 티셔츠4.jpg - 복사본 (6).jpg226A/845a693c-2c57-4dad-bde5-fe30915a7ebc.jpeg"
    },
    {
      "id": 12,
      "imgFiles": [
        "http://15.164.50.51:8080/images/products/A01M/후드 티셔츠4.jpg - 복사본 (5).jpg562A/view/dec0ff0f-33bc-4c25-baeb-949d15c9a4e8.jpeg"
      ],
      "name": "후드 티셔츠4.jpg - 복사본 (5).jpg562A",
      "price": 50000,
      "code": "A01M",
      "size": "s,m,l,xl,xxl",
      "detailInfo": "http://15.164.50.51:8080/images/products/A01M/후드 티셔츠4.jpg - 복사본 (5).jpg562A/2f885a1f-921b-4712-adf2-e8f043663999.jpeg"
    },
    {
      "id": 11,
      "imgFiles": [
        "http://15.164.50.51:8080/images/products/A01W/후드 티셔츠4.jpg - 복사본 (4).jpg254A/view/38b9b6d3-0545-4daf-8053-8ab9757b5a29.jpeg"
      ],
      "name": "후드 티셔츠4.jpg - 복사본 (4).jpg254A",
      "price": 50000,
      "code": "A01W",
      "size": "s,m,l,xl,xxl",
      "detailInfo": "http://15.164.50.51:8080/images/products/A01W/후드 티셔츠4.jpg - 복사본 (4).jpg254A/785a328d-80ba-428b-8ef1-788b5ffa6397.jpeg"
    },
    {
      "id": 10,
      "imgFiles": [
        "http://15.164.50.51:8080/images/products/A01M/후드 티셔츠4.jpg - 복사본 (3).jpg471A/view/9f1ebc29-0d50-4747-a010-9400b9402581.jpeg"
      ],
      "name": "후드 티셔츠4.jpg - 복사본 (3).jpg471A",
      "price": 40000,
      "code": "A01M",
      "size": "s,m,l,xl,xxl",
      "detailInfo": "http://15.164.50.51:8080/images/products/A01M/후드 티셔츠4.jpg - 복사본 (3).jpg471A/b24626fb-cf18-419d-bc58-ab97af43234b.jpeg"
    },
    {
      "id": 9,
      "imgFiles": [
        "http://15.164.50.51:8080/images/products/A01W/후드 티셔츠4.jpg - 복사본 (2).jpg981A/view/da293a59-d57b-4393-a83d-f19a578b804f.jpeg"
      ],
      "name": "후드 티셔츠4.jpg - 복사본 (2).jpg981A",
      "price": 20000,
      "code": "A01W",
      "size": "s,m,l,xl,xxl",
      "detailInfo": "http://15.164.50.51:8080/images/products/A01W/후드 티셔츠4.jpg - 복사본 (2).jpg981A/65c957ef-7aba-4c5d-bf89-56dbce94e9b8.jpeg"
    },
    {
      "id": 8,
      "imgFiles": [
        "http://15.164.50.51:8080/images/products/A01W/후드 티셔츠3.jpg.jpg797A/view/c69b0e87-38e9-4de0-8a2e-65be40d42c26.jpeg"
      ],
      "name": "후드 티셔츠3.jpg.jpg797A",
      "price": 20000,
      "code": "A01W",
      "size": "s,m,l,xl,xxl",
      "detailInfo": "http://15.164.50.51:8080/images/products/A01W/후드 티셔츠3.jpg.jpg797A/98bc4fcb-5ce1-464b-976f-844f87916862.jpeg"
    },
    {
      "id": 7,
      "imgFiles": [
        "http://15.164.50.51:8080/images/products/A01M/후드 티셔츠2.jpg.jpg552A/view/ded9827e-ae00-4446-9059-2db8db092c60.jpeg"
      ],
      "name": "후드 티셔츠2.jpg.jpg552A",
      "price": 50000,
      "code": "A01M",
      "size": "s,m,l,xl,xxl",
      "detailInfo": "http://15.164.50.51:8080/images/products/A01M/후드 티셔츠2.jpg.jpg552A/ea83b08d-f5c0-4f48-8379-6bc83183f460.jpeg"
    },
    {
      "id": 6,
      "imgFiles": [
        "http://15.164.50.51:8080/images/products/A01W/후드 티셔츠1.jpg.jpg772A/view/927dfc44-e637-452f-a263-e72c4d7c75fd.jpeg"
      ],
      "name": "후드 티셔츠1.jpg.jpg772A",
      "price": 10000,
      "code": "A01W",
      "size": "s,m,l,xl,xxl",
      "detailInfo": "http://15.164.50.51:8080/images/products/A01W/후드 티셔츠1.jpg.jpg772A/7bdb2f17-f4a4-4448-9738-db9fa19729c1.jpeg"
    },
    {
      "id": 5,
      "imgFiles": [
        "http://15.164.50.51:8080/images/products/A01M/흰색 후드/view/56f5f084-5358-4478-abb3-f860d93b7173.png",
        "http://15.164.50.51:8080/images/products/A01M/흰색 후드/view/89b4d382-61ef-4814-bc25-1f76389b137f.png"
      ],
      "name": "흰색 후드",
      "price": 1000,
      "code": "A01M",
      "size": "s,m,l,xl,xxl",
      "detailInfo": "http://15.164.50.51:8080/images/products/A01M/흰색 후드/78a58f32-fd71-48a7-b3cb-680832838c0c.png"
    },
    {
      "id": 3,
      "imgFiles": [
        "http://15.164.50.51:8080/images/products/A01/레드 후드티/view/ae671850-930f-413d-92bf-c15e64726b60.jpeg"
      ],
      "name": "레드 후드티",
      "price": 7000,
      "code": "A01",
      "size": "s,m,l",
      "detailInfo": "http://15.164.50.51:8080/images/products/A01/레드 후드티/e93a940e-24e7-4c10-8425-df0acca1b478.jpeg"
    },
    {
      "id": 2,
      "imgFiles": [
        "http://15.164.50.51:8080/images/products/A01/노랑 후드티/view/9a06b648-77dd-4b1d-bfd1-a2ed4a3f4116.jpeg"
      ],
      "name": "노랑 후드티",
      "price": 50000,
      "code": "A01",
      "size": "s,m,l",
      "detailInfo": "http://15.164.50.51:8080/images/products/A01/노랑 후드티/2368da57-7b4b-418c-871b-2626e4b2f54e.jpeg"
    },
    {
      "id": 1,
      "imgFiles": [
        "http://15.164.50.51:8080/images/products/A01/흰색 후드티/view/06b21db5-6d2e-4198-92b2-56a1e630e24b.jpeg",
        "http://15.164.50.51:8080/images/products/A01/흰색 후드티/view/3930e29b-e99f-4631-ba18-54273af6f003.jpeg"
      ],
      "name": "흰색 후드티",
      "price": 10000,
      "code": "A01",
      "size": "s,m,l",
      "detailInfo": "http://15.164.50.51:8080/images/products/A01/흰색 후드티/3f6ff9a8-3e2d-4431-a4fa-61c3951875b7.jpeg"
    }
  ],
  "pageable": {
    "sort": { "empty": false, "sorted": true, "unsorted": false },
    "offset": 20,
    "pageNumber": 1,
    "pageSize": 20,
    "paged": true,
    "unpaged": false
  },
  "totalPages": 2,
  "totalElements": 40,
  "last": true,
  "number": 1,
  "sort": { "empty": false, "sorted": true, "unsorted": false },
  "size": 20,
  "numberOfElements": 20,
  "first": false,
  "empty": false
}
